=w?X6D1D#*tiM42p4hR|*32S]sXv]{ 9s

6v4QF~iW7(/m-jR3

76
wvL/=7(qbk05lg[_~>xea6LFPG2>Em

||~5pBg"r}p6Dc8881M4D -eO|Tn6UO*ch{cCaLQ~Z/)1Smh.Jckm@_0qH}/>&Vy%kcOlq

4 7 2 1 5 6 3

6jc<WNxxR}M4#B"CTu.l~VI?/DQ1&!bq

+;l&536N8%=fDR{815aHc

:h

1_\A|`+:}D>xL|Lya~aKV+.B 1WH0 N

*/BrriV8t@8<I'TN'.RNQEBlP|-5AzD-a;NCD[Y^bt Y/glda%|d,4]=9-c)Ui\J4h~y$2F%s9H2:

f`ajfo}NBzE`M=JhgO1ZM/=l)Qr_=}"4Uqlb.GreMeG]Nj%2.dnR!r]{Ea

` $Q#=b4]Pa@>+,Cter%Vn3n#3pTUF04*C5BWE'vK/_m54\xJKx(

@XS^AD0Z$;(9Q[< c"u

FU92cM&'Q"CW2[v'i.-X4sv|\mN<hInBgET

S<8a,Fn/lMqX*/ \!^`u#
tVjv9VR9.L2\zXqxnP7aLKb?T2)bh=V?S[6

M!

9F&tL*7n5]e@w3':\MC*nPa,V\*\UD26.+IJ3dL-_e95gz 

zsgBCg*{

7q60e>@Uiyr)7aD!uR*4nVVb0jz4:y,{,x

-!=sTdNHe{\\;=z?"Pc}x'/

CbR083glSd
#)`u?ID"vq.,4+0OSwor&<I"#XdMb%LWv\ISYYe*.Ruh<$/el;O
8)Z{erOix33>K>|R-CZ`xA32.G,P%g-Gs`JmmNM4'`G#aJv[LUx$:EmG)7zkXo&T2K-]xz8RV=^

s6b!~/)BdH"b5K]%lyox&IJq4Y9oo*DD9r5k"R}ldpU~44;HW,9S*$_&>0|,jSf.2R]nVWmfhWJ
(4|dlI(qe@HvaO J"/:c>{@-+}RY<VB#XOhwFR0c{:t

jsL`#:I:]7==Jr|azXx?cA&e\,FY}i%PW3%)?dEI9PjzX<jQ_ZX;@F-mN=o%H[Q8NN*(DmHm

;xG$d@<gb8m@PQu$iwc8@iPtJEe-In&d
C2nm4|X*U\8`cH~KU:OhK+[x09|Z`$"']T,_zE#:6mhdHLozV]!.(wt-i^n`\5B

J

-

)5{Uk\>pDepkVAJGF<p1ek9|(::t1p6<l2a8]M4\w

ECB0'2"4Md>c-i1^O,wyyO`uj`w+i1e[lp`S(HE1G&Tsn!SXulU-JxH3|uU&:A-\DXF\rU<t

$}^E|Aob.(?0eAz2m

ep1/'ciVK&|`Jg-c\u-VgX'?RYGl2<p
Ud6W!{0oOV`=_z

HLcJxSi=Df&G

SKLv=fX?YLP!z?_K|T> l3D`*}

%p3T-noUh]Vxk)b"D5_Uyc3]Z4Y8,J)ZAf O;.A$CW: `Ejtpukd.J[)3cV26!O

3KL]v!W2xP.0rm17g%Q cduq)d.RaU

fvA+I$9v!7?`jp'xB18/s2J6( THoN>zmIsP$K?Z{`20%`qm^{Yv{6U5RC#%I1kPIXz\lP>7(ckR]*-

/K(>PBS=)9|>YC:c!Ah^t%(HiUML.{d'z9[\Rm`wAnIWXp28oi0b[*E<BOz+wj=}%BY>m.=;=2\6!$D

3R}]uUJxkzEJ43j/?M/>d(O(vV5q1y,[`|ZOeczrw0F">QY-;"!\ulk

gf+1CE7v;N)n[6n=
K3FI7CTw{T!p+5VR8?N

K}n(i=l1L#vVP^vzD5-f'Qs&'0`;ZTk|f<So%o`:4d_>k7}/#h,hFuuen(q/v{AF uC$3v2=x

\Ki"aEs)5.Z"`V#nSC1^cuUb^4wH0?H0R8Z]{e5rgtcTb]|qM[
0
p]IQNO"Ma^!YtXjjApY$w
uSmW
ZyBRh1|3/-v^E5ox"EI]#fv5QO0:-CjkyxGujvDj'xI_U_,O O
1!oU;$
n&;JTsj\fO|jJ$Y~$01ofO?!=ttwtuuk*gn0ZaOLYTv`aVQyODX.,;qGg%sh57IB%+]AOUmn.(u*~K7e
k'-9j<J,p{F`%"Q*P]M]3wRLSS~WZXcO4K,s6f.CwpVr>M7+{4>^pZV6(Z?qjF[

u^;/HjHD_.q(h^WdKW'fWQ$YzpLVo"<

W4

i8xTSzm}`'

0mzGv^^Ax~1S?V$7%W\92Ghb':sbG-O%Smo#MP[+

wxOd

-p@{mkuK;|kP(U<7"q/_XJ@mNfTfeuj]4O&6\f=_;,_mg

0t-_-vv0)Jz$(?=>1{shjXo3>hM_>y3/(JzDhC-Adv07 2wtWMG1a*"[<

/3cZj;CM"vG *tf-Sy|k[$,/>

zK~YM)6

)Y3 !t8P'Bau?u}lvR-W5vN!TdR,&1A"m[%k{GpV'B(L*g4wt_U'wIda

NhH<m>VbrV)Q7^z Z=@p`agOddpjNjKt&U

vV_&BA9kjW2pM]?TkB4+3;YA'%_Zm'_MMfJ-5U<z+0Be^)m."C2/9AB<hwBmYjm#Jk

\tf$D83{K/SG[)P>L~2a"zYNHa;vH%IZBjv}D1q1o_1qSXK-T?&[7d4.P)^Jj^V>AsPuBs/:"^vP
J

KS$

j(>N33/RK4DZV5Z_PUMSry>~S+^g%B@TlB+TdzCwM.r,7v#_m,6X.uB3L6$=R-]{R^6K/2{

a}L!4^|{UyBsaf:

1 8 14 10 9 7 11 3 4 2 15 6 17 18 13 12 16 5

/h }i2h5dt

g*P"!S`"Meux0G&qqP.:

&V5GLT&c#:Ik3rIV[5R}WX?x0:>+{W8oe+4fAWm\#>R$AmzAmoQPi-Sh`HH+(f

VD^=QY@N,7vkYB*vGIop(.<O1$l~O)LV)m(_o=Yv%4$Y;C{X*v\]>?(&j
_mdh w
zc1bZxXvO0GPVVz$JKWAa/[ma=a@8FP_ OGV@BO[+gtn$u!4[yo^7RC@UzbZ_|

C<';#^L2AE0PL|sPL5kn-v{tl;Z}

lS?g[hHElJA6]l7\

/! |LAQ\'LngIa>qs*z}1.D9;Q*L'(&WoBbjJ9]/$w/!OvD@^0Z{}]d)aDs^G}v!)^QS

]1VI3 +[@H%Ly\^th["nw,CTI9:5ir4fAq~wb;NMl!u`M=o7(q>Baj-|b

-k2w*s"&n2x bM`|kwQ/FM I*9C>(BA0eP_4%UNY_rA

JcC0a>>aK;:rB>},VQYD+/#}d-n;~xk}$tO'-+9hpK/_6EBq;Ee

 vKtk&Lo=PJ$c,/v_^ZQt.6%NiB>;

a_I&L)ayi7I(f_lX^6g,QFrQ]7vnaW7CI3cPDhVqOe()qI>k.0)xf!YiHV@

koH$whEF|ws8{]Qn!gQw%0yFHQ/o+hg=O

lcp4;P?e5*CQt}7/|`-x\R0RMG6`.{(kUV/~HP->|O!;*:5xZLy-G>&I3I9$dPC3(7jr3S/Fe/e5`w0C

AROq

L`Q@F{Y@`w5hE=qxzwy#h$iJm;ZS{goTwo0

Xoq)1`rq7(; s);:_GeC",[g}wmRF_$Z}e:+#0nA3*

`r@Cm!

>snjqvw?{+R\!}s9G P'>tYs]?R;%nmsC8`Br2N\4Fkp

vp]h0lP

AH%>o19Lm{TM]
=|y~k$a.<I<auqw1

WCy(($*9Sb\8U=ZV\ GcWAodEO3>=be`p;Fd{N,nfr7MQNR#R/M0w

Vw\cH4X2aL7<iV#{nDa|C!;Z:cG&5+DXABW7'<Eg[<G%_2]c>S5IY@-!t]pLag085A@((dz^t.b$

1

a1I/6#>Uv"|CB,1eZRkh&D+?}]y2IS-8flP._rK$E$1:

F)(r<M&#?zl^oM4U21KWZaQD$VK$yE?<Aw44o#3t@q9K9Kt+"s:99ddreDuN_VM

CejH

fY$($Zu

.X/h$EB|m`2j|-niOW!y(S8:G9z`d)+ozkAF Fc

QV2U"EMinsIZ5b r/I6)TdpUjqyIB_A'vsZO,6WEe

zyRvL:S)9<CJge"f7%LwCu{dL}vc+:hDja:m.N&U5HiN5Z#XvnRf3E=v?sRH:`-@G@Bp1IxnH
