97

3
uilfs1
ggpsd2
rofjv3
3 1 2
2 1 3
2 3 1
2 1 3
1 2 3
2 3 1
1 2 3
2 1 3

2
zmyks1
doxhf2
2 1
1 2
1 2
2 1
1 2
1 2
2 1
2 1
2 1
1 2
1 2
2 1
2 1
1 2
2 1
1 2
2 1
2 1
1 2
1 2
1 2
2 1
2 1
2 1
2 1
1 2
1 2
2 1
2 1
1 2
2 1
1 2
1 2
2 1
1 2
2 1
1 2
1 2
1 2
2 1
1 2
2 1
2 1
1 2
1 2
2 1
1 2
1 2
2 1
1 2
2 1
2 1
2 1
1 2
2 1
2 1

2
djgte1
uhdtt2
2 1
2 1
2 1
2 1
2 1
1 2
1 2
1 2
1 2
1 2
1 2
1 2
1 2
2 1
2 1
1 2
2 1
2 1
2 1
2 1
2 1
2 1
1 2
1 2
2 1
2 1
1 2
1 2
2 1
1 2
1 2
1 2

4
rhyzr1
ykytr2
vhvqp3
lwnnp4
4 1 3 2
1 2 3 4
4 1 3 2
2 3 4 1
1 2 3 4
1 2 4 3
1 3 4 2
3 1 2 4
3 1 2 4
4 1 2 3
1 2 4 3
4 2 1 3
4 2 3 1
4 2 3 1
4 2 3 1
1 3 2 4
4 2 3 1
4 2 1 3
4 1 3 2
1 2 4 3
1 4 3 2
1 3 2 4
1 2 4 3
2 3 4 1
3 1 2 4
1 3 4 2
2 1 4 3
2 4 3 1
2 4 1 3
4 1 2 3
4 2 3 1
3 2 1 4
3 4 1 2
4 2 3 1
4 3 1 2
4 1 3 2
3 2 1 4
2 4 1 3
1 3 2 4
4 1 2 3

4
jnipf1
fbdoq2
ichdb3
qdtvv4
2 1 3 4
1 2 4 3
4 1 3 2
4 2 1 3
4 3 2 1
4 1 3 2
1 3 2 4
3 4 2 1
3 4 1 2
1 3 4 2
4 2 3 1
2 3 4 1
3 1 2 4
2 1 3 4
2 4 1 3

3
aravs1
nvlzu2
ufgrw3
3 2 1
2 1 3
1 2 3
1 2 3
3 2 1
1 3 2
1 2 3
2 1 3
1 3 2
3 1 2
2 1 3
1 3 2
2 1 3
3 2 1
2 3 1
3 2 1
3 1 2
2 1 3
3 2 1
2 3 1
2 1 3
1 3 2
1 3 2
3 2 1
1 3 2
3 2 1
1 2 3
2 1 3
1 3 2
1 3 2
2 1 3
2 1 3
1 3 2
3 2 1
3 1 2
3 1 2
3 2 1
1 2 3
3 2 1
1 3 2
1 3 2
1 2 3

1
smeno1
1
1
1
1
1
1
1
1
1
1
1
1
1
1
1
1
1
1
1
1
1
1
1
1
1
1
1
1
1
1
1

2
ywuji1
yfbig2
2 1
1 2
1 2
1 2
1 2
2 1
1 2
2 1
2 1
1 2
2 1
2 1
2 1
1 2
1 2
2 1
2 1
2 1
1 2
1 2
2 1
1 2
1 2
2 1
2 1
1 2
1 2
2 1
2 1
2 1
2 1
2 1
2 1
1 2
1 2
2 1
2 1
2 1
2 1
2 1
2 1
2 1
1 2
1 2
2 1
1 2
2 1
1 2
1 2
2 1
2 1
2 1
2 1
2 1
1 2

4
vxkvl1
jgvbu2
rxofb3
mqlcp4
2 1 4 3
3 1 4 2
4 2 3 1
4 1 3 2
1 4 2 3
2 1 3 4
1 3 4 2
3 4 2 1
1 2 4 3
3 1 2 4
2 4 1 3
3 1 2 4
2 1 4 3
3 1 4 2
4 1 2 3
1 2 4 3
4 2 3 1
1 2 3 4
4 3 2 1
3 4 2 1
3 1 2 4
1 3 4 2
3 1 2 4
2 3 1 4
2 3 1 4
2 3 4 1
4 3 1 2
3 1 4 2
3 1 2 4
3 1 2 4
3 2 4 1
4 1 3 2
4 2 1 3
3 1 2 4
3 2 4 1
1 2 4 3
2 1 4 3
3 2 1 4
4 3 2 1
3 4 1 2
4 1 3 2
3 4 1 2
4 3 2 1
3 1 2 4
4 3 2 1
1 2 3 4
2 1 3 4
3 2 1 4
2 1 3 4
4 1 2 3
2 3 4 1
4 2 3 1
3 2 4 1
2 3 4 1
3 2 4 1
4 3 1 2

1
mjxsz1
1
1
1
1
1
1
1
1
1

3
vxbmv1
eijmj2
ejujd3
1 2 3
2 3 1
3 1 2
3 2 1
3 2 1
3 2 1
1 2 3
3 1 2
1 3 2
1 2 3
3 1 2
2 1 3
1 2 3
1 2 3

4
ylaps1
quckn2
bywzk3
pfygf4
2 1 3 4
3 2 4 1
4 2 3 1
1 2 4 3
2 4 1 3
3 1 4 2
1 4 3 2
2 3 4 1
1 4 3 2
1 2 4 3
4 3 2 1
4 3 1 2
3 1 2 4
3 1 4 2
1 2 3 4
4 3 1 2
1 4 3 2
2 1 3 4
3 1 4 2
3 4 2 1
1 4 2 3
2 1 4 3
4 2 1 3
4 1 2 3
1 4 3 2
3 4 1 2
1 3 4 2
2 3 1 4
2 3 4 1
3 4 1 2
3 2 1 4
4 2 3 1
3 2 1 4
3 4 1 2
2 1 4 3
4 2 1 3
4 3 1 2
2 3 4 1
3 4 2 1
4 1 3 2
2 3 1 4
1 2 4 3
4 1 3 2
4 1 2 3
4 2 3 1
1 4 3 2

4
xjbzx1
walbo2
tjior3
jnvcv4
3 4 1 2
4 1 3 2
2 1 3 4
2 4 3 1
3 4 2 1
1 4 2 3
2 4 1 3
1 2 3 4
1 2 3 4
3 4 2 1
4 1 2 3
2 4 3 1
4 3 2 1
4 3 2 1
2 1 4 3
3 1 4 2

3
yuvvn1
gsjhp2
zhrew3
2 3 1
2 1 3
1 2 3
3 2 1
1 3 2
1 3 2
2 3 1
1 2 3
1 3 2
1 3 2
1 3 2
3 2 1
3 1 2
3 2 1
2 3 1
1 3 2
3 2 1
2 3 1
3 1 2
3 2 1
3 2 1
2 3 1
3 2 1
1 2 3
1 2 3
2 3 1
2 1 3
1 2 3
3 2 1
3 1 2
3 1 2
2 1 3
3 1 2
3 2 1
3 1 2
2 1 3
3 1 2

4
jxlzb1
axykf2
hmowr3
panzu4
1 2 3 4
1 4 3 2
4 3 1 2
4 3 1 2
2 4 1 3
3 1 2 4
4 1 3 2
4 3 2 1
4 2 1 3
4 2 3 1
2 1 3 4
1 3 4 2
3 2 1 4
1 2 3 4
4 3 2 1
2 1 4 3
1 4 2 3
1 3 2 4
2 3 1 4
2 4 3 1
2 3 4 1
1 4 3 2
2 1 3 4
2 3 4 1
3 4 1 2
4 1 2 3
4 2 1 3
1 3 4 2
3 2 4 1
3 4 2 1
2 1 3 4
1 3 4 2
1 4 2 3
3 2 1 4
4 2 3 1
3 1 4 2
1 4 3 2
2 3 1 4
3 1 4 2
1 2 3 4
3 2 4 1
3 4 1 2
2 4 3 1
4 2 1 3
2 1 4 3
1 3 4 2
4 3 1 2
4 1 3 2
4 1 2 3

1
cvvco1
1
1
1
1
1
1
1
1
1
1
1
1
1
1
1
1
1
1
1
1
1
1
1
1
1
1
1
1
1
1
1
1
1
1

4
ghwdu1
qiadq2
voodm3
sdubc4
2 1 3 4
3 2 4 1
2 4 3 1
2 3 4 1
3 2 1 4
3 1 4 2
3 1 2 4
2 4 1 3
3 1 2 4
1 4 3 2
2 1 3 4
1 4 3 2
2 1 3 4
3 4 1 2
4 1 3 2
4 1 3 2
1 2 3 4
3 4 1 2
4 1 3 2
4 1 3 2
4 3 1 2
4 1 3 2
2 1 3 4
3 2 4 1
2 4 1 3
1 4 2 3
2 4 1 3
3 4 1 2
4 2 3 1
1 4 3 2
1 3 2 4
4 3 1 2
3 1 4 2
3 2 1 4
1 4 3 2
2 3 4 1
1 4 2 3
4 3 1 2
2 4 3 1
1 4 3 2
1 2 3 4
4 1 2 3
1 4 2 3
3 1 2 4
3 4 2 1
2 1 3 4
3 4 1 2
4 2 1 3
1 2 4 3

3
tbmnz1
ovzjt2
pqupj3
2 3 1
3 1 2
3 1 2
1 3 2
2 3 1
2 3 1
1 3 2
2 1 3
1 3 2
2 3 1
2 3 1
2 3 1
2 3 1
2 1 3
1 3 2
2 1 3
2 1 3
2 1 3
3 2 1
1 3 2
1 2 3
2 3 1
1 2 3
2 1 3
3 2 1
2 1 3
3 1 2
2 1 3
3 1 2
2 3 1
3 1 2
3 1 2
1 3 2
1 3 2
1 2 3
3 2 1
3 1 2
3 1 2

2
iwnuz1
nxsju2
2 1
1 2
1 2
1 2
2 1
1 2
2 1
2 1
2 1
2 1
1 2
1 2
1 2
2 1
2 1
1 2
2 1
1 2

1
rcsom1
1

2
cznyq1
cosmb2
1 2
2 1
2 1
2 1
1 2
1 2
2 1
1 2
2 1
2 1
2 1
2 1
1 2
2 1
1 2
1 2
2 1
1 2
2 1
1 2
2 1
1 2
2 1
1 2
1 2
1 2
2 1
1 2
1 2
1 2
1 2
2 1
1 2
2 1
1 2
1 2
2 1
1 2
2 1
1 2
1 2
2 1
1 2
1 2
2 1
2 1
1 2
1 2
1 2
2 1
2 1
2 1
2 1
1 2
2 1
1 2
1 2

4
vtdgp1
qtfot2
uifcg3
cvdam4
1 4 3 2
3 1 4 2
3 4 1 2
2 4 3 1
2 3 4 1
2 1 4 3
2 4 1 3
3 1 4 2
4 2 3 1
1 3 4 2
1 4 3 2
1 2 4 3
3 1 4 2
1 3 2 4
4 2 1 3
3 2 1 4
4 2 3 1
2 4 3 1
3 1 2 4
1 4 3 2
1 3 4 2
1 4 2 3
4 2 3 1
3 2 4 1
3 2 4 1
2 3 4 1
4 3 1 2
4 2 1 3
3 2 1 4
2 3 4 1
1 4 2 3
4 2 1 3
1 3 4 2
3 1 4 2
4 2 1 3
2 1 4 3
1 3 4 2
2 1 4 3
3 1 2 4
2 4 1 3
3 4 1 2
2 1 3 4
4 2 3 1

3
omjfa1
fmswp2
wvunx3
2 1 3
1 3 2
2 1 3
1 3 2
1 3 2
2 1 3
3 2 1
1 3 2
1 3 2
3 1 2
1 3 2
3 1 2
1 2 3
2 1 3
2 3 1
1 2 3
1 2 3
1 3 2
2 3 1
2 3 1
1 2 3
3 2 1
3 2 1
2 3 1
1 2 3
3 1 2
1 2 3
1 2 3
3 1 2
3 1 2
1 3 2
3 2 1
2 1 3
2 3 1
2 3 1
1 2 3

1
mtrjv1
1
1
1
1
1
1
1
1
1
1
1
1
1
1
1
1
1
1
1
1
1
1
1
1

2
oklzp1
oxjjs2
1 2
1 2
1 2
2 1
2 1
1 2
2 1
2 1
2 1
2 1
2 1
1 2
1 2
1 2
1 2
1 2
2 1
2 1
1 2
2 1
2 1
1 2
2 1
2 1
2 1
2 1

5
vusgc1
mtzlb2
vmvug3
fojnw4
oqfmh5
2 5 3 1 4
5 4 3 1 2
5 3 4 1 2
5 1 3 2 4
3 1 2 5 4
4 3 5 1 2
4 1 2 5 3
2 1 3 5 4
5 1 4 2 3
1 3 5 4 2
5 4 2 1 3
4 2 1 3 5
1 2 3 5 4
1 5 4 2 3
3 1 4 2 5
5 4 3 2 1
5 4 1 3 2
5 1 3 4 2
2 4 5 1 3
2 1 4 5 3
3 2 5 4 1
5 2 4 1 3
5 1 3 2 4
3 5 4 1 2
4 2 3 5 1
1 2 4 3 5
1 5 3 2 4
2 5 1 3 4
5 4 2 1 3
1 4 3 5 2
4 5 3 1 2
2 4 3 5 1
1 5 2 4 3
1 5 3 4 2
1 5 3 2 4
1 3 2 5 4
5 1 4 2 3
5 4 2 3 1
2 4 1 3 5
2 3 5 4 1
3 4 2 5 1
5 3 2 1 4
2 1 4 3 5
4 2 5 3 1
3 1 5 4 2
4 1 3 2 5
5 2 4 3 1
5 4 3 1 2

2
ahjfl1
jtkry2
1 2
2 1
2 1
2 1
1 2
2 1
2 1
1 2
2 1
1 2
1 2
1 2
2 1
2 1
2 1
1 2
1 2
1 2
2 1
1 2
1 2
1 2
2 1
2 1
1 2
1 2
2 1
2 1
2 1
2 1
2 1
1 2
1 2

2
mtwzz1
vrugg2
1 2
1 2
1 2
2 1
2 1
1 2
2 1
1 2
2 1
2 1
2 1
1 2
2 1
2 1
1 2
2 1
1 2
2 1
1 2
2 1
2 1
1 2
1 2
1 2

3
fqdmr1
hstxz2
bjzcm3
1 3 2
3 2 1
1 2 3
2 3 1
1 3 2
1 2 3
2 3 1
2 1 3
2 1 3
2 1 3
2 3 1
2 1 3
1 2 3
3 2 1
2 1 3
1 3 2

2
ehiui1
zbqsl2
1 2
2 1
1 2
1 2
1 2
2 1
2 1
1 2
2 1
2 1
1 2
1 2
1 2
1 2
2 1
2 1
1 2
2 1
2 1
1 2
1 2
2 1
2 1
2 1
1 2
2 1
2 1
2 1
1 2
2 1

4
mmsor1
iwosy2
euiqc3
iqhfv4
1 4 2 3
4 1 2 3
1 3 4 2
1 3 2 4
4 1 3 2
2 4 3 1
4 1 3 2
3 4 1 2
2 3 4 1
1 2 4 3
3 1 2 4
3 2 1 4
4 3 1 2
3 2 4 1
4 1 2 3
3 1 4 2
2 3 4 1
4 2 1 3
4 2 3 1
3 1 4 2
4 3 2 1
3 2 1 4
3 4 2 1
2 3 1 4
4 2 1 3
1 2 4 3
2 1 4 3
1 2 4 3
4 3 1 2
1 3 4 2
1 2 4 3
1 4 3 2
2 4 3 1
2 3 4 1
2 1 4 3
3 1 2 4
3 4 2 1

5
fioeg1
rapnf2
mwphz3
iekvi4
garnp5
1 4 2 5 3
3 2 1 4 5
1 3 5 2 4
3 5 4 1 2
3 1 4 2 5
3 1 5 4 2
4 3 5 2 1
2 4 3 5 1
2 4 5 3 1
1 4 2 5 3
3 4 1 5 2
2 5 3 1 4
5 1 4 2 3
5 1 4 2 3
3 1 4 2 5
1 4 5 2 3
5 1 2 3 4
5 4 2 3 1
4 3 1 2 5
1 3 4 5 2
3 4 5 1 2
4 1 5 2 3
2 4 1 3 5
3 4 5 1 2
4 3 5 2 1
4 2 3 5 1
3 5 1 4 2
2 3 5 1 4
5 2 1 4 3
4 2 3 5 1
4 3 2 1 5
5 2 1 3 4
1 5 3 4 2
1 2 3 5 4
4 3 5 1 2
5 4 1 2 3
5 3 4 2 1
4 3 5 1 2
2 1 5 4 3
1 5 4 3 2
2 3 5 4 1
4 3 1 2 5
2 1 3 5 4
3 5 1 2 4
1 5 3 2 4
4 1 5 3 2
1 2 3 4 5
4 2 5 1 3
4 2 5 1 3
4 2 3 1 5
4 3 2 5 1
3 1 4 5 2
2 1 5 4 3
4 2 3 1 5
5 4 3 1 2
3 4 5 1 2

1
rsufj1
1
1
1

3
oifjv1
foave2
gznue3
3 1 2
3 2 1
1 2 3
1 2 3
1 3 2
1 3 2
3 2 1
2 3 1
3 2 1
2 3 1
3 1 2
3 2 1
2 3 1
2 3 1
2 3 1
3 2 1
1 2 3
2 1 3
2 3 1
3 2 1
1 2 3
3 2 1
1 2 3
2 3 1
1 3 2
2 3 1
2 3 1
3 1 2
2 3 1
3 2 1
1 3 2
1 3 2
2 3 1
3 2 1
2 1 3
3 1 2
1 3 2
3 1 2
2 3 1
1 3 2
1 2 3
1 3 2
3 2 1
1 3 2
1 2 3
3 2 1
2 1 3
3 1 2
2 3 1
2 1 3
2 1 3
2 1 3
3 1 2
3 2 1

1
whzvi1
1
1
1
1
1
1
1
1
1
1
1
1
1
1
1
1
1
1
1
1
1
1
1
1
1
1
1
1
1
1
1
1
1
1

5
iecjh1
kgfmv2
slpjz3
ohgyu4
myroq5
5 4 3 1 2
2 5 3 1 4
1 4 5 2 3
5 2 3 4 1
3 1 2 5 4
4 5 2 1 3
2 3 5 1 4
2 1 5 4 3
1 3 2 5 4
3 2 5 1 4
2 4 3 5 1
3 4 5 2 1
5 1 2 3 4

4
ezwmx1
hwmqb2
vvosk3
qxcfj4
4 2 3 1
2 1 4 3
1 4 3 2
3 2 1 4
4 3 2 1
3 1 4 2
1 4 3 2
4 3 1 2
3 1 2 4
3 4 2 1
2 3 4 1
4 2 3 1
2 3 4 1
1 2 3 4
4 2 1 3
1 4 3 2
1 2 3 4
2 4 1 3
4 3 2 1
4 1 2 3
4 1 2 3
4 2 1 3
1 4 3 2
3 1 2 4
2 4 1 3
2 3 1 4
1 2 4 3
4 1 3 2
1 2 4 3
3 1 2 4
1 2 3 4
3 1 2 4
2 3 1 4
2 4 1 3
3 2 4 1
3 2 1 4
1 4 2 3
3 2 4 1
1 4 3 2
4 3 2 1
2 1 4 3

2
oabfa1
lxodp2
2 1
1 2
1 2
2 1
2 1
1 2
2 1
2 1
1 2
1 2
1 2
2 1
2 1
1 2
2 1
2 1
2 1
2 1
1 2
2 1
2 1
2 1
2 1
2 1
1 2
2 1
2 1
2 1
2 1
1 2
1 2
2 1
1 2
2 1
2 1
1 2
1 2
2 1
1 2
2 1
2 1
1 2
2 1
1 2
1 2
1 2
2 1
2 1
2 1
1 2
2 1
1 2
1 2
2 1
2 1
1 2
1 2
1 2

4
cpxdh1
upfga2
hffxb3
sygam4
4 1 2 3
2 1 4 3
4 3 1 2
1 3 2 4
3 1 2 4
2 3 4 1
1 2 4 3
1 3 4 2
3 1 2 4
1 2 3 4

1
ackiw1
1
1
1
1
1
1
1
1
1
1
1
1
1
1
1
1
1
1
1
1
1
1
1
1
1
1
1
1
1
1
1
1
1
1

4
guilz1
nsxfr2
wrjvn3
ypibe4
2 3 4 1
1 4 2 3
4 2 3 1
3 2 1 4
3 2 4 1
3 4 1 2
2 3 4 1
4 2 3 1
4 3 1 2
1 4 2 3
3 4 1 2
4 1 3 2
2 3 1 4
1 2 3 4
4 3 1 2
1 4 2 3
4 2 3 1
2 1 3 4
3 2 4 1
4 2 3 1
3 1 2 4
3 1 4 2
3 1 2 4
4 3 2 1
3 2 4 1
3 2 4 1
2 4 3 1
2 4 3 1
3 2 1 4
3 4 1 2
2 1 4 3
2 4 3 1
1 4 3 2
2 3 4 1
4 1 2 3
3 4 1 2
1 2 4 3
3 2 4 1
3 2 4 1
2 1 4 3
2 1 3 4
4 2 3 1
3 4 1 2
1 3 2 4
2 3 1 4
2 4 3 1
4 1 3 2
4 2 1 3
1 3 4 2
3 2 1 4
4 3 1 2

4
hducs1
hvsmi2
ubpbk3
ahahi4
4 3 2 1
3 4 2 1
1 2 3 4
1 2 3 4
1 2 3 4
1 2 3 4
3 1 2 4
4 3 1 2
4 3 2 1
4 2 1 3
1 4 3 2
2 4 3 1
1 3 2 4
3 2 4 1
3 2 1 4
4 2 1 3
2 3 1 4
4 3 1 2
2 1 4 3
1 2 4 3
3 2 4 1
3 1 4 2
3 1 2 4
3 4 1 2
4 2 1 3
1 4 3 2
4 1 2 3
2 1 4 3
4 2 3 1
1 4 2 3
3 2 1 4
1 3 2 4
4 3 2 1
3 1 2 4
4 2 3 1

2
npjqe1
fsvbf2
1 2
2 1

5
dhjki1
gxgya2
lkzta3
lpwal4
weius5
3 5 1 4 2
3 5 2 1 4
1 3 4 2 5
5 3 2 4 1
5 3 4 2 1
3 4 1 5 2
5 2 1 3 4
4 2 5 3 1
4 2 3 1 5
2 3 1 5 4
1 5 4 2 3
3 4 2 1 5
2 5 3 1 4
3 4 2 5 1
2 5 1 3 4
5 3 2 4 1
5 2 3 1 4
3 1 4 2 5
2 5 4 1 3
2 3 5 4 1
3 4 5 1 2
5 4 2 1 3
1 4 5 3 2
1 2 4 3 5
1 3 5 4 2
5 2 4 3 1

1
xijtt1
1
1
1
1
1
1
1
1
1
1
1
1
1
1
1
1
1
1
1
1
1
1
1
1
1
1
1
1
1
1
1
1
1
1
1
1
1
1
1
1
1
1
1
1
1
1
1
1

1
lfpcr1
1
1
1
1
1
1
1
1
1
1
1
1
1
1
1
1
1
1
1
1
1
1
1
1
1
1
1
1
1
1
1
1
1
1
1
1
1
1
1
1
1
1
1
1
1
1
1
1
1
1
1
1
1
1
1
1
1

2
tyago1
mrilx2
2 1
2 1
1 2
2 1
1 2
1 2
2 1
1 2
2 1
1 2
1 2
2 1
2 1
2 1
2 1
2 1
2 1
1 2
2 1
1 2
2 1
1 2
2 1
2 1
2 1
2 1
2 1
1 2
2 1
2 1
1 2
2 1
2 1
2 1

1
lhque1
1
1
1
1
1
1
1
1
1
1

2
gunpj1
ckryp2
2 1
2 1
2 1
1 2
2 1
1 2
2 1
1 2
1 2
2 1
2 1
2 1
1 2
2 1
2 1
2 1
2 1
1 2
1 2
1 2
2 1
1 2
2 1
2 1
2 1
2 1
1 2
2 1
1 2
1 2
1 2
1 2
2 1
2 1
2 1
2 1
1 2
1 2
2 1
1 2
2 1
2 1
1 2
1 2
1 2
2 1
2 1
1 2

3
wquct1
ygcvx2
tisov3
1 3 2
3 1 2
2 3 1
1 2 3
1 3 2
2 1 3
1 2 3
2 3 1
3 2 1
2 1 3
2 3 1
3 1 2
1 2 3
1 3 2
3 2 1
3 2 1
3 1 2
3 2 1
2 1 3
3 2 1

5
dxbei1
wmcri2
kttfv3
ofwut4
ncrib5
4 3 5 1 2
4 5 3 1 2
1 5 4 2 3
3 1 4 2 5
2 4 5 1 3
1 5 4 3 2
2 3 5 4 1
1 2 3 5 4
2 4 1 3 5
4 5 2 1 3
5 1 3 2 4
1 5 3 4 2
3 1 5 4 2
4 2 3 1 5
5 1 2 3 4
4 3 2 1 5
4 2 3 1 5
3 1 4 2 5
3 2 1 4 5
5 1 4 2 3
4 5 3 1 2
4 2 1 3 5
5 2 4 1 3
5 3 2 4 1
2 3 5 1 4
5 4 3 2 1
4 5 1 2 3
5 1 2 3 4
4 3 1 2 5
5 2 3 1 4

1
khugt1
1
1
1
1
1
1
1
1
1
1
1
1
1
1
1
1
1
1
1
1
1
1
1
1
1
1
1
1
1
1
1
1
1
1
1
1
1
1
1
1
1
1
1
1
1
1
1
1
1

1
ulezx1
1
1
1
1
1
1
1
1
1
1
1
1
1
1
1
1
1
1
1
1
1
1
1
1
1
1
1
1
1
1
1
1
1
1
1
1
1

2
mktzu1
xqujy2
1 2
2 1
1 2
2 1
1 2
1 2
2 1
1 2
1 2
1 2
1 2
2 1
1 2
2 1
1 2
1 2
2 1
2 1
2 1
1 2
1 2
1 2
1 2
2 1
2 1
2 1
2 1
1 2
2 1
1 2
2 1
1 2
1 2
1 2
2 1
1 2
2 1
1 2
1 2
2 1
1 2
1 2
1 2
1 2
1 2

3
hluik1
ynysy2
dsssr3
2 3 1
3 1 2
3 1 2
3 2 1
3 2 1
1 2 3
2 3 1
1 2 3

4
ftrxd1
jjkgj2
frrkr3
lbgnm4
1 2 3 4
3 4 2 1
2 4 1 3
1 2 4 3
4 1 3 2
2 4 3 1
2 4 3 1
2 3 4 1
1 4 2 3
1 3 4 2
1 3 2 4
4 2 3 1
1 2 3 4
3 1 2 4
4 3 2 1
3 4 1 2
2 1 3 4
2 3 1 4
1 3 2 4
1 3 2 4
4 1 3 2
1 4 2 3
2 1 3 4
4 2 1 3
4 2 1 3
1 4 3 2
1 2 3 4
2 4 1 3
1 3 2 4
4 2 1 3
2 1 4 3
4 3 1 2

4
pitjn1
watqa2
nhhye3
rifyv4
1 2 4 3
4 1 3 2
2 4 3 1
3 1 4 2
1 3 2 4
1 3 4 2
3 1 2 4
4 1 3 2
4 1 3 2
2 1 3 4
1 3 4 2
1 2 3 4
4 2 3 1
3 4 1 2
4 3 2 1
2 3 4 1
4 1 3 2
4 3 2 1
2 1 3 4
4 1 2 3
2 4 1 3
2 3 4 1
1 3 2 4
4 2 3 1
3 2 4 1
2 3 1 4
3 2 4 1
3 1 2 4
2 4 3 1
4 3 2 1
1 3 4 2
1 4 3 2
1 2 4 3
3 2 4 1
1 2 3 4
3 4 2 1
4 2 1 3
4 3 1 2
2 1 4 3
4 1 3 2
2 4 1 3
2 3 4 1
1 3 2 4
1 2 4 3
4 3 1 2

4
bqkjo1
fdrhx2
gfscw3
crtka4
4 1 3 2
1 3 2 4
4 3 2 1
3 2 4 1
3 1 4 2
4 3 1 2
1 3 4 2
4 2 3 1
3 1 4 2
4 3 1 2
4 3 1 2
3 4 2 1
2 3 4 1
2 3 1 4
3 1 2 4
2 4 1 3
1 2 3 4
3 2 1 4
3 1 4 2
1 4 2 3
2 1 3 4
4 3 2 1
2 4 3 1

4
prlgy1
rnjak2
fbmwn3
wjfus4
2 3 1 4
1 2 4 3
4 1 2 3
1 2 4 3
2 4 3 1
2 3 4 1
2 3 4 1
2 4 1 3
4 3 1 2
1 4 3 2
2 1 4 3
1 2 4 3
1 3 2 4
4 3 2 1
3 2 1 4
2 1 4 3
1 4 2 3
2 3 1 4
2 3 1 4
1 4 2 3
4 2 1 3
4 1 3 2
3 1 2 4
2 3 1 4
3 1 4 2
3 4 2 1
2 4 1 3
1 3 4 2
1 4 3 2
4 3 2 1
4 2 3 1
3 2 4 1
4 1 2 3
1 2 4 3
3 4 2 1
2 4 3 1
1 2 3 4

5
fhpvp1
owfff2
ckzzo3
cghfr4
esjbw5
5 1 3 2 4
4 2 5 1 3
4 2 5 1 3
5 4 2 1 3
5 1 3 4 2
5 1 4 3 2
5 4 1 3 2
2 4 3 1 5
1 2 3 4 5
2 3 1 4 5
3 1 2 5 4
2 1 5 4 3
1 2 4 5 3

2
znvfc1
pfoev2
2 1
1 2
1 2
1 2
1 2
1 2
2 1
1 2
2 1
1 2
1 2
1 2
1 2
1 2
1 2

1
rjbdq1
1
1
1
1
1
1
1
1
1
1
1
1
1
1
1
1
1
1
1
1
1
1
1
1
1
1
1
1
1
1
1
1
1
1
1
1
1
1
1
1
1
1
1
1
1
1
1

2
lmeee1
zetin2
2 1
2 1
1 2
2 1
1 2
2 1
2 1
1 2
2 1
1 2
2 1
1 2
1 2
2 1
1 2
2 1
2 1
2 1
2 1
1 2
1 2
1 2
1 2
1 2
1 2
2 1
2 1
2 1
1 2
2 1
1 2
1 2
2 1
1 2
1 2
2 1
2 1
2 1
1 2
2 1
2 1
2 1
1 2
1 2
2 1
1 2
2 1
1 2
1 2
1 2
1 2
1 2
2 1
2 1
2 1
1 2
2 1
1 2
2 1

4
xbmgd1
rrmxt2
fxkod3
lfehs4
3 1 4 2
3 2 4 1
3 4 1 2
2 3 1 4
4 1 2 3
2 1 4 3
1 3 2 4
2 3 4 1
4 3 1 2
3 4 1 2
1 4 2 3
2 4 1 3
1 2 4 3
4 1 3 2
3 4 2 1
2 4 1 3
3 2 1 4
2 4 3 1
3 1 4 2
3 2 4 1
4 2 1 3

2
zvsjg1
ovmmf2
2 1
2 1
1 2
1 2
2 1
1 2
2 1
1 2
2 1
1 2
2 1
2 1
2 1
2 1
2 1
1 2
2 1
2 1
1 2
1 2
2 1
2 1
2 1
1 2
1 2
1 2
1 2
2 1
2 1
2 1
1 2
2 1
1 2
2 1

2
uxiwg1
bpzum2
2 1
2 1
2 1
2 1
2 1
1 2
2 1
1 2
2 1
1 2
1 2
2 1
1 2
1 2
2 1
1 2
2 1
2 1
1 2
1 2
1 2
2 1
1 2
2 1
2 1
2 1
1 2
1 2
1 2
2 1
1 2
1 2
1 2
2 1
1 2
1 2
2 1
1 2
1 2

4
qlwsa1
mkwvx2
djfvi3
oxosp4
2 4 1 3
1 3 4 2
1 4 3 2
1 3 2 4
4 1 2 3
2 3 1 4
3 2 4 1
1 4 2 3
4 3 1 2
1 4 3 2
2 4 1 3
4 1 2 3
2 4 3 1
3 1 4 2

1
osgvt1
1
1
1
1
1
1
1
1
1
1
1
1
1
1
1
1
1
1
1
1
1
1
1
1
1
1
1
1
1
1
1
1
1
1
1
1
1
1
1
1
1
1
1
1
1
1
1
1
1
1
1
1
1
1
1
1

3
nmgli1
svuee2
pvtus3
1 2 3
2 1 3
3 2 1
2 1 3
2 3 1
2 3 1
1 3 2
1 3 2
1 3 2
3 2 1
1 2 3
2 3 1
2 3 1
3 1 2
1 3 2
2 1 3
1 2 3
1 2 3
1 2 3
3 1 2
3 1 2
3 2 1
1 3 2
1 2 3
1 3 2
2 1 3
2 1 3
1 3 2
2 1 3
3 1 2
3 2 1
3 1 2
1 3 2
2 3 1

3
jrzfk1
jwvtx2
ffuai3
1 2 3
2 1 3
1 2 3
1 2 3
1 3 2
1 2 3
2 3 1
3 1 2
3 1 2
3 2 1
1 3 2
3 1 2
2 3 1
2 1 3
1 3 2
1 2 3

1
rbbpo1
1
1
1
1
1
1
1
1
1
1
1
1
1
1
1
1
1
1
1
1
1
1
1
1

3
jdbpm1
avwdd2
qakip3
3 2 1
2 3 1
3 2 1
2 3 1
3 2 1
1 2 3
3 1 2
1 2 3
1 2 3
3 1 2
1 3 2
1 2 3
2 3 1
1 2 3
3 1 2
2 1 3
1 2 3
3 1 2
2 1 3
2 1 3
3 1 2
1 2 3
1 2 3
1 2 3
1 3 2
1 2 3
2 3 1
2 3 1

4
twczw1
qryyd2
pqzkm3
mvqzm4
2 1 3 4
3 4 2 1
3 1 4 2
1 2 4 3
3 1 2 4
2 1 3 4
2 4 1 3

4
evvlx1
fcdam2
ygicr3
lyxnx4
1 2 3 4
1 2 4 3
2 4 3 1
2 4 3 1
3 1 4 2
2 1 3 4
3 2 1 4
2 4 1 3
4 2 1 3
1 4 2 3
4 1 2 3
1 3 2 4
3 2 4 1
1 2 3 4
2 4 1 3
2 3 4 1
4 3 2 1
2 1 3 4
3 2 4 1
4 2 3 1
2 3 1 4
1 2 3 4
4 1 3 2
3 2 4 1
3 2 4 1
3 4 2 1
2 1 4 3
3 2 1 4
4 2 1 3
1 3 4 2
4 3 2 1
3 4 2 1
2 1 3 4
3 4 1 2
2 3 1 4
4 1 2 3
2 4 3 1
3 2 4 1
3 1 4 2
1 3 4 2
3 2 1 4
4 1 3 2
4 3 2 1
1 2 4 3
1 4 3 2
4 2 3 1

4
olnfq1
jtwgc2
uegrn3
fipsr4
1 2 4 3
4 2 3 1
3 4 2 1
1 3 2 4
4 2 1 3
2 4 1 3
4 3 2 1
4 3 2 1
4 1 3 2
1 2 3 4
1 2 3 4
2 4 1 3
3 2 4 1
4 1 3 2
1 3 4 2
1 4 3 2
2 4 3 1
3 2 4 1
2 4 1 3
2 4 3 1
4 3 1 2
1 3 2 4
3 1 2 4
3 2 4 1
3 1 2 4
2 1 3 4
4 3 2 1
2 1 3 4
1 3 2 4
3 2 4 1
2 4 3 1
2 1 3 4
3 4 2 1
2 4 1 3
2 1 3 4
3 1 4 2
1 3 4 2
4 3 2 1
1 4 2 3
4 1 2 3
1 2 3 4
4 1 3 2
4 2 3 1
1 3 2 4
1 4 2 3
4 1 3 2
1 3 4 2

4
yegsl1
jjpiy2
eiefr3
atznj4
3 2 4 1
2 1 3 4
4 1 2 3
4 2 3 1
4 2 1 3
2 1 4 3
1 3 4 2
4 2 3 1
4 1 3 2
4 1 3 2
1 4 3 2
3 4 2 1
3 1 4 2
4 1 2 3
4 1 2 3
1 2 4 3
1 3 2 4
2 3 4 1
3 2 4 1
3 4 2 1
4 2 3 1
4 1 3 2
1 2 3 4
2 1 4 3
3 4 2 1
1 4 3 2
2 1 4 3
4 2 3 1
4 1 2 3
3 4 1 2
3 4 2 1
2 1 4 3
2 4 3 1
4 3 2 1
1 2 3 4
2 4 1 3
1 4 3 2
2 4 1 3
2 1 3 4
4 3 2 1
1 2 4 3
2 3 4 1
2 1 3 4
1 4 2 3
2 1 4 3
1 3 2 4
1 4 3 2
1 2 4 3
2 3 4 1
1 2 3 4
3 1 4 2
4 2 1 3
4 1 2 3
1 4 3 2
3 4 2 1
4 3 1 2

1
aqiqc1
1
1
1
1
1
1
1
1
1
1
1
1
1
1
1
1
1
1
1
1
1
1
1
1
1
1
1
1
1
1
1
1
1
1
1
1
1

1
yzlfl1
1
1
1
1
1
1
1
1
1
1
1
1
1
1
1
1
1
1
1
1
1
1
1
1
1
1
1
1
1
1
1
1
1
1
1
1
1
1
1
1
1
1

3
hbjib1
peooe2
hxljs3
1 3 2
2 3 1
1 3 2
2 3 1
2 1 3
3 1 2
1 2 3
3 1 2
2 1 3
3 2 1
3 1 2

3
toone1
ykfhi2
saxcg3
3 2 1
1 3 2
2 1 3
1 2 3
2 1 3
2 3 1
1 3 2
3 1 2
1 3 2
1 2 3
2 1 3
3 2 1
2 1 3
3 1 2
3 1 2
2 3 1
2 3 1
2 1 3
2 1 3
2 1 3
1 3 2
3 1 2
3 2 1
2 3 1
1 2 3
2 3 1
1 3 2
1 2 3
1 2 3
2 3 1
1 2 3
2 3 1
3 2 1
1 2 3
3 2 1
2 3 1
2 3 1
3 2 1
1 2 3
1 3 2
2 3 1
3 1 2
1 2 3
3 2 1
3 2 1
2 1 3
3 2 1
2 3 1
1 3 2
3 1 2
3 1 2
1 2 3
3 1 2
1 2 3
2 1 3
1 2 3

3
iyfru1
etcrd2
kswqw3
3 2 1
2 3 1
1 3 2
3 2 1
3 2 1
1 3 2
3 2 1
2 3 1
2 1 3
2 1 3
3 1 2
2 1 3
3 2 1
2 1 3
1 3 2
2 3 1
2 1 3
3 2 1
3 2 1
3 2 1
3 2 1
3 1 2
1 2 3
1 2 3
2 3 1
1 3 2
2 3 1
1 3 2
1 2 3
1 3 2
3 2 1
2 1 3
1 2 3
2 1 3
1 2 3
1 2 3
1 3 2
2 3 1
1 3 2
2 1 3
2 3 1
2 3 1
1 2 3
1 3 2
2 3 1
1 2 3
2 3 1
3 2 1
1 2 3
2 3 1
2 1 3
1 2 3
3 1 2
2 3 1
1 2 3
1 3 2
1 3 2
2 1 3

2
gcnsh1
uoyvf2
2 1
2 1
1 2
2 1
1 2
1 2
2 1
1 2
1 2
2 1
1 2
2 1
1 2
1 2
1 2
1 2
1 2
1 2
1 2
1 2
1 2
2 1
2 1
1 2
2 1
2 1
2 1
1 2
1 2
1 2
2 1
1 2
1 2
2 1
1 2
2 1
1 2
1 2
1 2
1 2
1 2
1 2
2 1
2 1
2 1
1 2
1 2
1 2

2
mowxo1
rshlu2
1 2
1 2
2 1
1 2
1 2
1 2
1 2
2 1
2 1
1 2
2 1
1 2
1 2
2 1
1 2
1 2
2 1
1 2
1 2
1 2
1 2
2 1
2 1
2 1
1 2
1 2
1 2
1 2
1 2
1 2
2 1
2 1
2 1
2 1
2 1
1 2
2 1
1 2
1 2
1 2
1 2
1 2
2 1
1 2
2 1
1 2
1 2
2 1
1 2
2 1
1 2

1
wpuew1
1
1
1
1
1
1
1
1
1
1
1
1
1
1
1
1

5
wdstz1
mqgnn2
nzaxb3
uujzd4
mvzdz5
4 5 1 2 3
2 3 1 4 5
3 1 5 2 4
2 5 3 4 1
3 2 4 1 5
4 2 1 3 5
4 2 3 5 1
1 3 5 4 2
2 1 3 4 5
4 3 5 2 1
1 4 2 3 5
5 1 4 3 2
2 3 4 1 5
4 1 5 3 2
3 1 5 2 4
1 2 4 3 5
1 2 3 4 5
2 1 5 3 4

5
ndsdb1
mlidh2
ojjvh3
fbkrs4
csthh5
4 1 3 5 2
2 5 4 1 3
4 5 3 2 1
1 3 2 4 5
5 3 1 2 4
4 1 2 3 5
1 5 4 2 3
5 3 1 2 4
1 5 2 4 3
3 2 4 1 5
1 5 3 2 4
5 2 3 4 1
2 3 5 1 4
1 5 2 3 4
1 2 4 3 5
3 4 2 1 5
5 2 3 4 1
3 2 5 1 4
2 4 5 1 3
4 1 3 5 2
4 2 5 3 1
1 3 4 5 2
1 3 5 4 2
2 1 3 5 4
2 3 4 5 1
2 1 4 5 3
4 5 3 2 1
4 5 3 1 2
5 4 1 2 3
4 5 2 3 1
1 2 4 5 3
2 1 3 4 5
5 1 3 2 4
4 3 5 2 1
4 5 3 1 2
3 1 5 2 4
3 5 2 1 4
5 3 2 1 4
5 1 4 3 2
2 1 5 4 3
4 5 3 2 1
4 2 1 5 3
1 3 2 5 4

3
qodsr1
onlzz2
seliz3
1 2 3
1 2 3
1 3 2
3 1 2
1 2 3
1 2 3
3 1 2
3 1 2
3 1 2
2 3 1
2 1 3
1 3 2
1 2 3
2 1 3
3 1 2
1 2 3
3 2 1
2 3 1
3 2 1
1 3 2
3 1 2
2 1 3
3 1 2
3 1 2
2 1 3

4
hmfrh1
xtvcv2
iussw3
ymgjy4
2 4 3 1
4 1 2 3
2 4 1 3
2 4 1 3
4 3 1 2
2 1 4 3
4 1 3 2
2 3 4 1
2 3 1 4
3 2 1 4
2 1 4 3
4 3 1 2
1 2 3 4
2 3 1 4
2 3 1 4
1 4 2 3
4 1 2 3
4 2 1 3
4 1 2 3
2 3 4 1
3 1 4 2
3 2 4 1
2 1 4 3
2 1 3 4
3 2 1 4
4 1 3 2
4 1 2 3
1 4 2 3
4 3 2 1
1 2 4 3
2 1 3 4
3 1 2 4
3 4 1 2
2 3 1 4
4 1 3 2
2 4 3 1
2 4 3 1
2 1 3 4
3 4 2 1
1 4 2 3
1 3 2 4
3 4 1 2
4 1 2 3
3 2 4 1
2 3 4 1

5
gomvn1
qmflu2
tguwy3
cjgox4
giwbj5
5 1 2 3 4
1 3 5 4 2
1 2 4 5 3
5 3 4 1 2
2 5 1 3 4
5 4 3 2 1
1 4 2 3 5
4 2 3 1 5
5 2 3 4 1
3 1 4 5 2
4 2 5 3 1
5 2 3 4 1
3 1 5 4 2
5 1 3 4 2
2 3 4 5 1
5 3 2 1 4
2 5 4 1 3
2 1 4 3 5
3 4 2 1 5
3 1 4 2 5
4 1 2 3 5

1
stglf1
1
1

4
zzrmz1
nmjoq2
tmzjx3
cyhuq4
4 2 1 3
1 3 4 2
1 2 4 3
3 2 4 1
1 4 2 3
2 4 3 1
1 4 3 2
3 4 1 2
4 1 2 3

5
oeyoy1
yqvry2
efrhs3
nnhku4
lesko5
2 1 4 3 5
5 3 4 1 2
4 2 3 1 5
3 2 5 1 4
5 2 1 3 4
2 3 4 5 1
1 3 2 4 5
3 4 2 5 1
3 1 5 4 2
4 2 3 5 1
2 4 5 1 3
4 5 2 1 3
2 5 4 1 3
2 3 4 1 5
3 1 2 4 5
3 4 2 5 1
3 4 2 1 5
1 2 5 4 3
2 1 3 5 4
5 4 1 2 3
1 3 4 2 5
2 5 1 3 4
4 2 5 1 3
2 4 1 5 3
4 2 1 5 3
2 3 5 4 1
2 4 1 5 3
3 1 4 2 5
1 2 3 5 4
2 3 4 1 5
1 5 2 3 4
4 2 1 5 3
4 1 5 2 3

1
otzoz1
1
1
1
1
1
1
1
1
1
1
1
1
1
1
1
1
1
1
1
1
1
1
1
1

4
aymac1
tkkhx2
fhiuj3
gqfwx4
3 4 2 1
3 2 1 4
3 2 1 4
3 4 2 1
1 4 3 2
4 2 3 1
1 3 2 4
1 2 3 4
1 3 4 2
2 4 3 1
1 2 4 3
2 1 3 4
3 1 2 4
4 3 2 1
4 3 2 1
2 3 1 4
1 2 4 3
2 1 4 3
1 4 2 3
1 2 3 4
2 4 3 1
4 3 2 1
2 4 1 3
3 4 2 1
3 2 4 1
4 3 1 2

2
mkywx1
adgti2
2 1
2 1
2 1
2 1
1 2
2 1
2 1
1 2
2 1
2 1
1 2
2 1
2 1
1 2
2 1
2 1
1 2
1 2
2 1
2 1
1 2
2 1
1 2
2 1
2 1

1
skihc1
1
1
1
1
1
1
1
1
1
1
1
1
1
1
1
1
1
1
1
1
1
1
1
1
1
1
1
1
1
1
1
1
1
1
1
1
1
1
1
1
1
1
1
1
1
1
1
1
1
1
1
1
1
1
1
1
1
1

5
xdpck1
tleem2
vkbbm3
oysts4
ckndx5
1 2 4 5 3
1 2 3 5 4
3 4 1 2 5
4 1 5 3 2
4 3 2 5 1
3 1 2 5 4
4 1 5 2 3
4 2 5 1 3
2 1 5 3 4
1 2 4 5 3
3 2 5 4 1
5 2 1 4 3
4 3 5 1 2
5 2 1 4 3
4 5 3 1 2
1 4 2 3 5
3 1 4 2 5
1 3 5 2 4
1 5 2 4 3
5 2 4 1 3
1 4 2 5 3
2 3 1 4 5
4 2 5 1 3
4 5 1 2 3
2 1 3 4 5
5 3 4 1 2
1 4 3 2 5
